top.vcd
$date
	Fri Jun 26 08:20:16 2026
$end
$version
	Icarus Verilog
$end
$timescale
	1ps
$end
$scope module riscv_top_tb $end
$var wire 32 ! pc [31:0] $end
$var reg 1 " clk $end
$var reg 1 # reset $end
$scope module dut $end
$var wire 1 " clk $end
$var wire 1 # reset $end
$var wire 1 $ zero_flag $end
$var wire 32 % write_back_data [31:0] $end
$var wire 32 & rs2_data [31:0] $end
$var wire 32 ' rs1_data [31:0] $end
$var wire 32 ( read_data [31:0] $end
$var wire 1 ) pc_sel $end
$var wire 32 * pc_plus_4 [31:0] $end
$var wire 32 + pc [31:0] $end
$var wire 1 , operandA_sel $end
$var wire 7 - opcode [6:0] $end
$var wire 32 . next_pc [31:0] $end
$var wire 32 / instruction [31:0] $end
$var wire 32 0 immediate [31:0] $end
$var wire 3 1 funct3 [2:0] $end
$var wire 32 2 alu_result [31:0] $end
$var wire 2 3 WriteBackSel [1:0] $end
$var wire 1 4 MemoryWrite $end
$var wire 1 5 MemoryRead $end
$var wire 1 6 Jump $end
$var wire 1 7 Branch $end
$var wire 1 8 ALUSrc $end
$var wire 4 9 ALUControl [3:0] $end
$scope module decode_unit $end
$var wire 1 " clk $end
$var wire 1 # reset $end
$var wire 1 : write_enable $end
$var wire 32 ; write_data [31:0] $end
$var wire 5 < rs2 [4:0] $end
$var wire 5 = rs1 [4:0] $end
$var wire 5 > rd [4:0] $end
$var wire 1 , operandA_sel $end
$var wire 7 ? opcode [6:0] $end
$var wire 32 @ instruction [31:0] $end
$var wire 32 A immediate [31:0] $end
$var wire 7 B funct7 [6:0] $end
$var wire 3 C funct3 [2:0] $end
$var wire 32 D data2 [31:0] $end
$var wire 32 E data1 [31:0] $end
$var wire 2 F WriteBackSel [1:0] $end
$var wire 1 4 MemoryWrite $end
$var wire 1 5 MemoryRead $end
$var wire 1 6 Jump $end
$var wire 3 G ImmSel [2:0] $end
$var wire 1 7 Branch $end
$var wire 1 8 ALUSrc $end
$var wire 3 H ALUOp [2:0] $end
$var wire 4 I ALUControl [3:0] $end
$scope module u_alu_control $end
$var wire 32 J instruction [31:0] $end
$var wire 3 K funct3 [2:0] $end
$var wire 3 L ALUOp [2:0] $end
$var parameter 4 M ALU_ADD $end
$var parameter 4 N ALU_AND $end
$var parameter 4 O ALU_AUIPC $end
$var parameter 4 P ALU_LUI $end
$var parameter 4 Q ALU_OR $end
$var parameter 4 R ALU_RES12 $end
$var parameter 4 S ALU_SLL $end
$var parameter 4 T ALU_SLT $end
$var parameter 4 U ALU_SLTU $end
$var parameter 4 V ALU_SRA $end
$var parameter 4 W ALU_SRL $end
$var parameter 4 X ALU_SUB $end
$var parameter 4 Y ALU_XOR $end
$var parameter 3 Z AUIPC_OP $end
$var parameter 3 [ BRANCH $end
$var parameter 3 \ I_TYPE_ALU $end
$var parameter 3 ] LOAD_STORE_ADRESS_CALC $end
$var parameter 3 ^ LUI_OP $end
$var parameter 3 _ RESERVED $end
$var parameter 3 ` R_TYPE $end
$var reg 4 a ALUControl [3:0] $end
$upscope $end
$scope module u_control_unit $end
$var wire 7 b opcode [6:0] $end
$var wire 32 c instruction [31:0] $end
$var reg 3 d ALUOp [2:0] $end
$var reg 1 8 ALUSrc $end
$var reg 1 7 Branch $end
$var reg 3 e ImmSel [2:0] $end
$var reg 1 6 Jump $end
$var reg 1 5 MemoryRead $end
$var reg 1 4 MemoryWrite $end
$var reg 1 : RegWrite $end
$var reg 2 f WriteBackSel [1:0] $end
$var reg 1 , operandA_sel $end
$upscope $end
$scope module u_immediate_generator $end
$var wire 3 g ImmSel [2:0] $end
$var wire 32 h instruction [31:0] $end
$var reg 32 i immediate [31:0] $end
$upscope $end
$scope module u_instruction_decoder $end
$var wire 5 j rs2 [4:0] $end
$var wire 5 k rs1 [4:0] $end
$var wire 5 l rd [4:0] $end
$var wire 7 m opcode [6:0] $end
$var wire 32 n instruction [31:0] $end
$var wire 7 o funct7 [6:0] $end
$var wire 3 p funct3 [2:0] $end
$upscope $end
$scope module u_register_file $end
$var wire 1 " clk $end
$var wire 5 q rd [4:0] $end
$var wire 1 # reset $end
$var wire 5 r rs1 [4:0] $end
$var wire 5 s rs2 [4:0] $end
$var wire 1 : we $end
$var wire 32 t write_data [31:0] $end
$var wire 32 u data2 [31:0] $end
$var wire 32 v data1 [31:0] $end
$var integer 32 w i [31:0] $end
$upscope $end
$upscope $end
$scope module execute_unit $end
$var wire 4 x ALUControl [3:0] $end
$var wire 1 8 ALUSrc $end
$var wire 32 y immediate [31:0] $end
$var wire 1 , operandA_sel $end
$var wire 32 z rs1 [31:0] $end
$var wire 32 { rs2 [31:0] $end
$var wire 1 $ zero_flag $end
$var wire 32 | result [31:0] $end
$var wire 32 } pc [31:0] $end
$var wire 32 ~ operandB [31:0] $end
$var wire 32 !" operandA [31:0] $end
$scope module u_alu $end
$var wire 4 "" ALUControl [3:0] $end
$var wire 32 #" operandB [31:0] $end
$var wire 32 $" operandA [31:0] $end
$var parameter 4 %" ADD $end
$var parameter 4 &" AND $end
$var parameter 4 '" AUIPC $end
$var parameter 4 (" LUI $end
$var parameter 4 )" OR $end
$var parameter 4 *" SLL $end
$var parameter 4 +" SLT $end
$var parameter 4 ," SLTU $end
$var parameter 4 -" SRA $end
$var parameter 4 ." SRL $end
$var parameter 4 /" SUB $end
$var parameter 4 0" XOR $end
$var reg 32 1" result [31:0] $end
$var reg 1 $ zero_flag $end
$upscope $end
$scope module u_alusrc_mux $end
$var wire 1 8 ALUSrc $end
$var wire 32 2" immediate [31:0] $end
$var wire 32 3" reg_data [31:0] $end
$var wire 32 4" operandB [31:0] $end
$upscope $end
$scope module u_operandA_mux $end
$var wire 1 , operandA_sel $end
$var wire 32 5" rs1 [31:0] $end
$var wire 32 6" pc [31:0] $end
$var wire 32 7" operandA [31:0] $end
$upscope $end
$upscope $end
$scope module fetch_unit $end
$var wire 1 " clk $end
$var wire 1 # reset $end
$var wire 1 ) pc_sel $end
$var wire 32 8" pc [31:0] $end
$var wire 32 9" instruction [31:0] $end
$var wire 32 :" branched_address [31:0] $end
$scope module u1_instruction_memory $end
$var wire 32 ;" address [31:0] $end
$var reg 32 <" instruction [31:0] $end
$upscope $end
$scope module u1_pc_top $end
$var wire 1 " clk $end
$var wire 1 # reset $end
$var wire 1 ) pc_sel $end
$var wire 32 =" pc [31:0] $end
$var wire 32 >" next_address [31:0] $end
$var wire 32 ?" branched_address [31:0] $end
$scope module u1_pc $end
$var wire 1 " clk $end
$var wire 1 # reset $end
$var wire 32 @" next_address [31:0] $end
$var reg 32 A" pc [31:0] $end
$upscope $end
$scope module u1_pc_mux $end
$var wire 32 B" pc [31:0] $end
$var wire 1 ) sel $end
$var wire 32 C" next_address [31:0] $end
$var wire 32 D" branched_address [31:0] $end
$upscope $end
$upscope $end
$upscope $end
$scope module memory_unit $end
$var wire 1 5 MemoryRead $end
$var wire 1 4 MemoryWrite $end
$var wire 32 E" address [31:0] $end
$var wire 1 " clk $end
$var wire 32 F" write_data [31:0] $end
$var reg 32 G" read_data [31:0] $end
$upscope $end
$scope module u1_branch_jump_unit $end
$var wire 1 7 Branch $end
$var wire 1 6 Jump $end
$var wire 3 H" funct3 [2:0] $end
$var wire 32 I" immediate [31:0] $end
$var wire 7 J" opcode [6:0] $end
$var wire 32 K" pc [31:0] $end
$var wire 32 L" rs1_data [31:0] $end
$var wire 32 M" rs2_data [31:0] $end
$var wire 1 $ zero_flag $end
$var wire 1 N" unsigned_less $end
$var wire 1 O" take_branch $end
$var wire 1 P" signed_less $end
$var reg 32 Q" next_pc [31:0] $end
$var reg 1 ) pc_sel $end
$upscope $end
$scope module wb_unit $end
$var wire 32 R" alu_result [31:0] $end
$var wire 32 S" pc_plus_4 [31:0] $end
$var wire 32 T" read_data [31:0] $end
$var wire 2 U" write_back_sel [1:0] $end
$var wire 32 V" write_back_data [31:0] $end
$upscope $end
$upscope $end
$upscope $end
$enddefinitions $end
$comment Show the parameter values. $end
$dumpall
b100 0"
b1 /"
b110 ."
b111 -"
b1001 ,"
b1000 +"
b101 *"
b11 )"
b1010 ("
b1011 '"
b10 &"
b0 %"
b10 `
b110 _
b100 ^
b0 ]
b11 \
b1 [
b101 Z
b100 Y
b1 X
b110 W
b111 V
b1001 U
b1000 T
b101 S
b1100 R
b11 Q
b1010 P
b1011 O
b10 N
b0 M
$end
#0
$dumpvars
b101101 V"
b0 U"
b0 T"
b100 S"
b101101 R"
b100 Q"
0P"
0O"
0N"
b0 M"
b0 L"
b0 K"
b10011 J"
b101101 I"
b0 H"
b0 G"
b0 F"
b101101 E"
b100 D"
b100 C"
b0 B"
b0 A"
b100 @"
b100 ?"
b100 >"
b0 ="
b10110100000000000100010011 <"
b0 ;"
b100 :"
b10110100000000000100010011 9"
b0 8"
b0 7"
b0 6"
b0 5"
b101101 4"
b0 3"
b101101 2"
b101101 1"
b0 $"
b101101 #"
b0 ""
b0 !"
b101101 ~
b0 }
b101101 |
b0 {
b0 z
b101101 y
b0 x
b100000 w
b0 v
b0 u
b101101 t
b1101 s
b0 r
b10 q
b0 p
b1 o
b10110100000000000100010011 n
b10011 m
b10 l
b0 k
b1101 j
b101101 i
b10110100000000000100010011 h
b0 g
b0 f
b0 e
b11 d
b10110100000000000100010011 c
b10011 b
b0 a
b11 L
b0 K
b10110100000000000100010011 J
b0 I
b11 H
b0 G
b0 F
b0 E
b0 D
b0 C
b1 B
b101101 A
b10110100000000000100010011 @
b10011 ?
b10 >
b0 =
b1101 <
b101101 ;
1:
b0 9
18
07
06
05
04
b0 3
b101101 2
b0 1
b101101 0
b10110100000000000100010011 /
b100 .
b10011 -
0,
b0 +
b100 *
0)
b0 (
b0 '
b0 &
b101101 %
0$
1#
0"
b0 !
$end
#5000
b100000 w
1"
#10000
0"
#15000
b100000 w
1"
#20000
0"
0#
#25000
b1010000 %
b1010000 ;
b1010000 t
b1010000 V"
b1010000 2
b1010000 |
b1010000 1"
b1010000 E"
b1010000 R"
b1010000 ~
b1010000 #"
b1010000 4"
b10 B
b10 o
b10000 <
b10000 j
b10000 s
b11 >
b11 l
b11 q
b1010000 0
b1010000 A
b1010000 i
b1010000 y
b1010000 2"
b1010000 I"
b1000 >"
b1000 @"
b1000 C"
b101000000000000000110010011 /
b101000000000000000110010011 @
b101000000000000000110010011 J
b101000000000000000110010011 c
b101000000000000000110010011 h
b101000000000000000110010011 n
b101000000000000000110010011 9"
b101000000000000000110010011 <"
b1000 .
b1000 :"
b1000 ?"
b1000 D"
b1000 Q"
b1000 *
b1000 S"
b100 !
b100 +
b100 }
b100 6"
b100 8"
b100 ;"
b100 ="
b100 A"
b100 B"
b100 K"
1"
#30000
0"
#35000
b1111101 %
b1111101 ;
b1111101 t
b1111101 V"
b101101 !"
b101101 $"
b101101 7"
b1111101 2
b1111101 |
b1111101 1"
b1111101 E"
b1111101 R"
1P"
1N"
b1010000 &
b1010000 D
b1010000 u
b1010000 {
b1010000 3"
b1010000 F"
b1010000 M"
b101101 '
b101101 E
b101101 v
b101101 z
b101101 5"
b101101 L"
b10 H
b10 L
b10 d
b111 G
b111 e
b111 g
08
b1010000 ~
b1010000 #"
b1010000 4"
b0 B
b0 o
b11 <
b11 j
b11 s
b10 =
b10 k
b10 r
b100 >
b100 l
b100 q
b110011 ?
b110011 m
b110011 b
b110011 -
b110011 J"
b0 0
b0 A
b0 i
b0 y
b0 2"
b0 I"
b1100 >"
b1100 @"
b1100 C"
b1100010000001000110011 /
b1100010000001000110011 @
b1100010000001000110011 J
b1100010000001000110011 c
b1100010000001000110011 h
b1100010000001000110011 n
b1100010000001000110011 9"
b1100010000001000110011 <"
b1100 .
b1100 :"
b1100 ?"
b1100 D"
b1100 Q"
b1100 *
b1100 S"
b1000 !
b1000 +
b1000 }
b1000 6"
b1000 8"
b1000 ;"
b1000 ="
b1000 A"
b1000 B"
b1000 K"
1"
#40000
0"
#45000
0$
b0 !"
b0 $"
b0 7"
b0 %
b0 ;
b0 t
b0 V"
b1000 0
b1000 A
b1000 i
b1000 y
b1000 2"
b1000 I"
b1000 ~
b1000 #"
b1000 4"
b1000 2
b1000 |
b1000 1"
b1000 E"
b1000 R"
b1111101 &
b1111101 D
b1111101 u
b1111101 {
b1111101 3"
b1111101 F"
b1111101 M"
b0 '
b0 E
b0 v
b0 z
b0 5"
b0 L"
b11 3
b11 F
b11 f
b11 U"
b0 H
b0 L
b0 d
b1 G
b1 e
b1 g
14
18
0:
b0 9
b0 I
b0 a
b0 x
b0 ""
b100 <
b100 j
b100 s
b0 =
b0 k
b0 r
b10 C
b10 p
b1000 >
b1000 l
b1000 q
b100011 ?
b100011 m
b100011 b
b10 K
b10 1
b10 H"
b100011 -
b100011 J"
b10000 >"
b10000 @"
b10000 C"
b10000000010010000100011 /
b10000000010010000100011 @
b10000000010010000100011 J
b10000000010010000100011 c
b10000000010010000100011 h
b10000000010010000100011 n
b10000000010010000100011 9"
b10000000010010000100011 <"
b10000 .
b10000 :"
b10000 ?"
b10000 D"
b10000 Q"
b10000 *
b10000 S"
b1100 !
b1100 +
b1100 }
b1100 6"
b1100 8"
b1100 ;"
b1100 ="
b1100 A"
b1100 B"
b1100 K"
1"
#50000
0"
#55000
b1100100 %
b1100100 ;
b1100100 t
b1100100 V"
b1100100 2
b1100100 |
b1100100 1"
b1100100 E"
b1100100 R"
b0 3
b0 F
b0 f
b0 U"
b11 H
b11 L
b11 d
b0 G
b0 e
b0 g
04
1:
b1100100 ~
b1100100 #"
b1100100 4"
b11 B
b11 o
b0 C
b0 p
b101 >
b101 l
b101 q
b10011 ?
b10011 m
b10011 b
b0 K
b0 1
b0 H"
b10011 -
b10011 J"
b1100100 0
b1100100 A
b1100100 i
b1100100 y
b1100100 2"
b1100100 I"
b10100 >"
b10100 @"
b10100 C"
b110010000000000001010010011 /
b110010000000000001010010011 @
b110010000000000001010010011 J
b110010000000000001010010011 c
b110010000000000001010010011 h
b110010000000000001010010011 n
b110010000000000001010010011 9"
b110010000000000001010010011 <"
b10100 .
b10100 :"
b10100 ?"
b10100 D"
b10100 Q"
b10100 *
b10100 S"
b10000 !
b10000 +
b10000 }
b10000 6"
b10000 8"
b10000 ;"
b10000 ="
b10000 A"
b10000 B"
b10000 K"
1"
#60000
0"
#65000
1)
1O"
b1100100 !"
b1100100 $"
b1100100 7"
b0 %
b0 ;
b0 t
b0 V"
b11111111111111111111111111100111 2
b11111111111111111111111111100111 |
b11111111111111111111111111100111 1"
b11111111111111111111111111100111 E"
b11111111111111111111111111100111 R"
b1100100 '
b1100100 E
b1100100 v
b1100100 z
b1100100 5"
b1100100 L"
b11 3
b11 F
b11 f
b11 U"
b1 H
b1 L
b1 d
b10 G
b10 e
b10 g
17
08
0:
b1 9
b1 I
b1 a
b1 x
b1 ""
b1111101 ~
b1111101 #"
b1111101 4"
b0 B
b0 o
b101 =
b101 k
b101 r
b100 C
b100 p
b10000 >
b10000 l
b10000 q
b1100011 ?
b1100011 m
b1100011 b
b100 K
b100 1
b100 H"
b1100011 -
b1100011 J"
b10000 0
b10000 A
b10000 i
b10000 y
b10000 2"
b10000 I"
b100100 >"
b100100 @"
b100100 C"
b10000101100100001100011 /
b10000101100100001100011 @
b10000101100100001100011 J
b10000101100100001100011 c
b10000101100100001100011 h
b10000101100100001100011 n
b10000101100100001100011 9"
b10000101100100001100011 <"
b100100 .
b100100 :"
b100100 ?"
b100100 D"
b100100 Q"
b11000 *
b11000 S"
b10100 !
b10100 +
b10100 }
b10100 6"
b10100 8"
b10100 ;"
b10100 ="
b10100 A"
b10100 B"
b10100 K"
1"
#70000
0"
#75000
b11001 2
b11001 |
b11001 1"
b11001 E"
b11001 R"
b1100100 ~
b1100100 #"
b1100100 4"
b1111101 !"
b1111101 $"
b1111101 7"
b11001 %
b11001 ;
b11001 t
b11001 V"
b1100100 &
b1100100 D
b1100100 u
b1100100 {
b1100100 3"
b1100100 F"
b1100100 M"
0P"
0N"
b1111101 '
b1111101 E
b1111101 v
b1111101 z
b1111101 5"
b1111101 L"
b0 3
b0 F
b0 f
b0 U"
b10 H
b10 L
b10 d
b111 G
b111 e
b111 g
07
1:
0O"
b100000 B
b100000 o
b101 <
b101 j
b101 s
b100 =
b100 k
b100 r
b0 C
b0 p
b110 >
b110 l
b110 q
b110011 ?
b110011 m
b110011 b
b0 K
b0 1
b0 H"
b110011 -
b110011 J"
b0 0
b0 A
b0 i
b0 y
b0 2"
b0 I"
b101000 >"
b101000 @"
b101000 C"
b1000000010100100000001100110011 /
b1000000010100100000001100110011 @
b1000000010100100000001100110011 J
b1000000010100100000001100110011 c
b1000000010100100000001100110011 h
b1000000010100100000001100110011 n
b1000000010100100000001100110011 9"
b1000000010100100000001100110011 <"
b101000 .
b101000 :"
b101000 ?"
b101000 D"
b101000 Q"
0)
b101000 *
b101000 S"
b100100 !
b100100 +
b100100 }
b100100 6"
b100100 8"
b100100 ;"
b100100 ="
b100100 A"
b100100 B"
b100100 K"
1"
#80000
0"
#85000
0$
b0 !"
b0 $"
b0 7"
b1100 0
b1100 A
b1100 i
b1100 y
b1100 2"
b1100 I"
b1100 ~
b1100 #"
b1100 4"
b0 %
b0 ;
b0 t
b0 V"
b11001 &
b11001 D
b11001 u
b11001 {
b11001 3"
b11001 F"
b11001 M"
1P"
1N"
b0 '
b0 E
b0 v
b0 z
b0 5"
b0 L"
b11 3
b11 F
b11 f
b11 U"
b0 H
b0 L
b0 d
b1 G
b1 e
b1 g
14
18
0:
b1100 2
b1100 |
b1100 1"
b1100 E"
b1100 R"
b0 B
b0 o
b110 <
b110 j
b110 s
b0 =
b0 k
b0 r
b10 C
b10 p
b1100 >
b1100 l
b1100 q
b100011 ?
b100011 m
b100011 b
b10 K
b10 1
b10 H"
b100011 -
b100011 J"
b0 9
b0 I
b0 a
b0 x
b0 ""
b101100 >"
b101100 @"
b101100 C"
b11000000010011000100011 /
b11000000010011000100011 @
b11000000010011000100011 J
b11000000010011000100011 c
b11000000010011000100011 h
b11000000010011000100011 n
b11000000010011000100011 9"
b11000000010011000100011 <"
b101100 .
b101100 :"
b101100 ?"
b101100 D"
b101100 Q"
b101100 *
b101100 S"
b101000 !
b101000 +
b101000 }
b101000 6"
b101000 8"
b101000 ;"
b101000 ="
b101000 A"
b101000 B"
b101000 K"
1"
#90000
0"
#95000
1O"
1$
b0 2
b0 |
b0 1"
b0 E"
b0 R"
0P"
0N"
b0 &
b0 D
b0 u
b0 {
b0 3"
b0 F"
b0 M"
b0 3
b0 F
b0 f
b0 U"
b11 H
b11 L
b11 d
b0 G
b0 e
b0 g
04
1:
b0 ~
b0 #"
b0 4"
b0 <
b0 j
b0 s
b0 C
b0 p
b0 >
b0 l
b0 q
b10011 ?
b10011 m
b10011 b
b0 K
b0 1
b0 H"
b10011 -
b10011 J"
b0 0
b0 A
b0 i
b0 y
b0 2"
b0 I"
b110000 >"
b110000 @"
b110000 C"
b10011 /
b10011 @
b10011 J
b10011 c
b10011 h
b10011 n
b10011 9"
b10011 <"
b110000 .
b110000 :"
b110000 ?"
b110000 D"
b110000 Q"
b110000 *
b110000 S"
b101100 !
b101100 +
b101100 }
b101100 6"
b101100 8"
b101100 ;"
b101100 ="
b101100 A"
b101100 B"
b101100 K"
1"
#100000
0"
#105000
b110100 >"
b110100 @"
b110100 C"
b110100 .
b110100 :"
b110100 ?"
b110100 D"
b110100 Q"
b110100 *
b110100 S"
b110000 !
b110000 +
b110000 }
b110000 6"
b110000 8"
b110000 ;"
b110000 ="
b110000 A"
b110000 B"
b110000 K"
1"
#110000
0"
#115000
b111000 >"
b111000 @"
b111000 C"
b111000 .
b111000 :"
b111000 ?"
b111000 D"
b111000 Q"
b111000 *
b111000 S"
b110100 !
b110100 +
b110100 }
b110100 6"
b110100 8"
b110100 ;"
b110100 ="
b110100 A"
b110100 B"
b110100 K"
1"
#120000
0"
#125000
b111100 >"
b111100 @"
b111100 C"
b111100 .
b111100 :"
b111100 ?"
b111100 D"
b111100 Q"
b111100 *
b111100 S"
b111000 !
b111000 +
b111000 }
b111000 6"
b111000 8"
b111000 ;"
b111000 ="
b111000 A"
b111000 B"
b111000 K"
1"
#130000
0"
#135000
b1000000 >"
b1000000 @"
b1000000 C"
b1000000 .
b1000000 :"
b1000000 ?"
b1000000 D"
b1000000 Q"
b1000000 *
b1000000 S"
b111100 !
b111100 +
b111100 }
b111100 6"
b111100 8"
b111100 ;"
b111100 ="
b111100 A"
b111100 B"
b111100 K"
1"
#140000
0"
#145000
b1000100 >"
b1000100 @"
b1000100 C"
b1000100 .
b1000100 :"
b1000100 ?"
b1000100 D"
b1000100 Q"
b1000100 *
b1000100 S"
b1000000 !
b1000000 +
b1000000 }
b1000000 6"
b1000000 8"
b1000000 ;"
b1000000 ="
b1000000 A"
b1000000 B"
b1000000 K"
1"
#150000
0"
#155000
b1001000 >"
b1001000 @"
b1001000 C"
b1001000 .
b1001000 :"
b1001000 ?"
b1001000 D"
b1001000 Q"
b1001000 *
b1001000 S"
b1000100 !
b1000100 +
b1000100 }
b1000100 6"
b1000100 8"
b1000100 ;"
b1000100 ="
b1000100 A"
b1000100 B"
b1000100 K"
1"
#160000
0"
#165000
b1001100 >"
b1001100 @"
b1001100 C"
b1001100 .
b1001100 :"
b1001100 ?"
b1001100 D"
b1001100 Q"
b1001100 *
b1001100 S"
b1001000 !
b1001000 +
b1001000 }
b1001000 6"
b1001000 8"
b1001000 ;"
b1001000 ="
b1001000 A"
b1001000 B"
b1001000 K"
1"
#170000
0"
#175000
b1010000 >"
b1010000 @"
b1010000 C"
b1010000 .
b1010000 :"
b1010000 ?"
b1010000 D"
b1010000 Q"
b1010000 *
b1010000 S"
b1001100 !
b1001100 +
b1001100 }
b1001100 6"
b1001100 8"
b1001100 ;"
b1001100 ="
b1001100 A"
b1001100 B"
b1001100 K"
1"
#180000
0"
#185000
b1010100 >"
b1010100 @"
b1010100 C"
b1010100 .
b1010100 :"
b1010100 ?"
b1010100 D"
b1010100 Q"
b1010100 *
b1010100 S"
b1010000 !
b1010000 +
b1010000 }
b1010000 6"
b1010000 8"
b1010000 ;"
b1010000 ="
b1010000 A"
b1010000 B"
b1010000 K"
1"
#190000
0"
#195000
b1011000 >"
b1011000 @"
b1011000 C"
b1011000 .
b1011000 :"
b1011000 ?"
b1011000 D"
b1011000 Q"
b1011000 *
b1011000 S"
b1010100 !
b1010100 +
b1010100 }
b1010100 6"
b1010100 8"
b1010100 ;"
b1010100 ="
b1010100 A"
b1010100 B"
b1010100 K"
1"
#200000
0"
#205000
b1011100 >"
b1011100 @"
b1011100 C"
b1011100 .
b1011100 :"
b1011100 ?"
b1011100 D"
b1011100 Q"
b1011100 *
b1011100 S"
b1011000 !
b1011000 +
b1011000 }
b1011000 6"
b1011000 8"
b1011000 ;"
b1011000 ="
b1011000 A"
b1011000 B"
b1011000 K"
1"
#210000
0"
#215000
b1100000 >"
b1100000 @"
b1100000 C"
b1100000 .
b1100000 :"
b1100000 ?"
b1100000 D"
b1100000 Q"
b1100000 *
b1100000 S"
b1011100 !
b1011100 +
b1011100 }
b1011100 6"
b1011100 8"
b1011100 ;"
b1011100 ="
b1011100 A"
b1011100 B"
b1011100 K"
1"
#220000
0"
#225000
b1100100 >"
b1100100 @"
b1100100 C"
b1100100 .
b1100100 :"
b1100100 ?"
b1100100 D"
b1100100 Q"
b1100100 *
b1100100 S"
b1100000 !
b1100000 +
b1100000 }
b1100000 6"
b1100000 8"
b1100000 ;"
b1100000 ="
b1100000 A"
b1100000 B"
b1100000 K"
1"
#230000
0"
#235000
b1101000 >"
b1101000 @"
b1101000 C"
b1101000 .
b1101000 :"
b1101000 ?"
b1101000 D"
b1101000 Q"
b1101000 *
b1101000 S"
b1100100 !
b1100100 +
b1100100 }
b1100100 6"
b1100100 8"
b1100100 ;"
b1100100 ="
b1100100 A"
b1100100 B"
b1100100 K"
1"
#240000
0"
#245000
b1101100 >"
b1101100 @"
b1101100 C"
b1101100 .
b1101100 :"
b1101100 ?"
b1101100 D"
b1101100 Q"
b1101100 *
b1101100 S"
b1101000 !
b1101000 +
b1101000 }
b1101000 6"
b1101000 8"
b1101000 ;"
b1101000 ="
b1101000 A"
b1101000 B"
b1101000 K"
1"
#250000
0"
#255000
b1110000 >"
b1110000 @"
b1110000 C"
b1110000 .
b1110000 :"
b1110000 ?"
b1110000 D"
b1110000 Q"
b1110000 *
b1110000 S"
b1101100 !
b1101100 +
b1101100 }
b1101100 6"
b1101100 8"
b1101100 ;"
b1101100 ="
b1101100 A"
b1101100 B"
b1101100 K"
1"
#260000
0"
#265000
b1110100 >"
b1110100 @"
b1110100 C"
b1110100 .
b1110100 :"
b1110100 ?"
b1110100 D"
b1110100 Q"
b1110100 *
b1110100 S"
b1110000 !
b1110000 +
b1110000 }
b1110000 6"
b1110000 8"
b1110000 ;"
b1110000 ="
b1110000 A"
b1110000 B"
b1110000 K"
1"
#270000
0"
#275000
b1111000 >"
b1111000 @"
b1111000 C"
b1111000 .
b1111000 :"
b1111000 ?"
b1111000 D"
b1111000 Q"
b1111000 *
b1111000 S"
b1110100 !
b1110100 +
b1110100 }
b1110100 6"
b1110100 8"
b1110100 ;"
b1110100 ="
b1110100 A"
b1110100 B"
b1110100 K"
1"
#280000
0"
#285000
b1111100 >"
b1111100 @"
b1111100 C"
b1111100 .
b1111100 :"
b1111100 ?"
b1111100 D"
b1111100 Q"
b1111100 *
b1111100 S"
b1111000 !
b1111000 +
b1111000 }
b1111000 6"
b1111000 8"
b1111000 ;"
b1111000 ="
b1111000 A"
b1111000 B"
b1111000 K"
1"
#290000
0"
#295000
b10000000 >"
b10000000 @"
b10000000 C"
b10000000 .
b10000000 :"
b10000000 ?"
b10000000 D"
b10000000 Q"
b10000000 *
b10000000 S"
b1111100 !
b1111100 +
b1111100 }
b1111100 6"
b1111100 8"
b1111100 ;"
b1111100 ="
b1111100 A"
b1111100 B"
b1111100 K"
1"
#300000
0"
#305000
b10000100 >"
b10000100 @"
b10000100 C"
b10000100 .
b10000100 :"
b10000100 ?"
b10000100 D"
b10000100 Q"
b10000100 *
b10000100 S"
b10000000 !
b10000000 +
b10000000 }
b10000000 6"
b10000000 8"
b10000000 ;"
b10000000 ="
b10000000 A"
b10000000 B"
b10000000 K"
1"
#310000
0"
#315000
b10001000 >"
b10001000 @"
b10001000 C"
b10001000 .
b10001000 :"
b10001000 ?"
b10001000 D"
b10001000 Q"
b10001000 *
b10001000 S"
b10000100 !
b10000100 +
b10000100 }
b10000100 6"
b10000100 8"
b10000100 ;"
b10000100 ="
b10000100 A"
b10000100 B"
b10000100 K"
1"
#320000
0"
#325000
b10001100 >"
b10001100 @"
b10001100 C"
b10001100 .
b10001100 :"
b10001100 ?"
b10001100 D"
b10001100 Q"
b10001100 *
b10001100 S"
b10001000 !
b10001000 +
b10001000 }
b10001000 6"
b10001000 8"
b10001000 ;"
b10001000 ="
b10001000 A"
b10001000 B"
b10001000 K"
1"
#330000
0"
#335000
b10010000 >"
b10010000 @"
b10010000 C"
b10010000 .
b10010000 :"
b10010000 ?"
b10010000 D"
b10010000 Q"
b10010000 *
b10010000 S"
b10001100 !
b10001100 +
b10001100 }
b10001100 6"
b10001100 8"
b10001100 ;"
b10001100 ="
b10001100 A"
b10001100 B"
b10001100 K"
1"
#340000
0"
#345000
b10010100 >"
b10010100 @"
b10010100 C"
b10010100 .
b10010100 :"
b10010100 ?"
b10010100 D"
b10010100 Q"
b10010100 *
b10010100 S"
b10010000 !
b10010000 +
b10010000 }
b10010000 6"
b10010000 8"
b10010000 ;"
b10010000 ="
b10010000 A"
b10010000 B"
b10010000 K"
1"
#350000
0"
#355000
b10011000 >"
b10011000 @"
b10011000 C"
b10011000 .
b10011000 :"
b10011000 ?"
b10011000 D"
b10011000 Q"
b10011000 *
b10011000 S"
b10010100 !
b10010100 +
b10010100 }
b10010100 6"
b10010100 8"
b10010100 ;"
b10010100 ="
b10010100 A"
b10010100 B"
b10010100 K"
1"
#360000
0"
#365000
b10011100 >"
b10011100 @"
b10011100 C"
b10011100 .
b10011100 :"
b10011100 ?"
b10011100 D"
b10011100 Q"
b10011100 *
b10011100 S"
b10011000 !
b10011000 +
b10011000 }
b10011000 6"
b10011000 8"
b10011000 ;"
b10011000 ="
b10011000 A"
b10011000 B"
b10011000 K"
1"
#370000
0"
#375000
b10100000 >"
b10100000 @"
b10100000 C"
b10100000 .
b10100000 :"
b10100000 ?"
b10100000 D"
b10100000 Q"
b10100000 *
b10100000 S"
b10011100 !
b10011100 +
b10011100 }
b10011100 6"
b10011100 8"
b10011100 ;"
b10011100 ="
b10011100 A"
b10011100 B"
b10011100 K"
1"
#380000
0"
#385000
b10100100 >"
b10100100 @"
b10100100 C"
b10100100 .
b10100100 :"
b10100100 ?"
b10100100 D"
b10100100 Q"
b10100100 *
b10100100 S"
b10100000 !
b10100000 +
b10100000 }
b10100000 6"
b10100000 8"
b10100000 ;"
b10100000 ="
b10100000 A"
b10100000 B"
b10100000 K"
1"
#390000
0"
#395000
b10101000 >"
b10101000 @"
b10101000 C"
b10101000 .
b10101000 :"
b10101000 ?"
b10101000 D"
b10101000 Q"
b10101000 *
b10101000 S"
b10100100 !
b10100100 +
b10100100 }
b10100100 6"
b10100100 8"
b10100100 ;"
b10100100 ="
b10100100 A"
b10100100 B"
b10100100 K"
1"
